[
  {
    "id": 1,
    "page_category_id": 1,
    "title": "How to buy",
    "url": "how-to-buy",
    "content": "How to buy",
    "type": "standard",
    "seo_keywords": "how to buy",
    "seo_description": "How to buy products in out online shop.",
    "add_to_header": 1,
    "add_to_footer": 0,
    "created_date": "2017-03-26 13:00:00",
    "modified_date": "2017-03-26 13:00:00",
    "deleted": 0
  },
  {
    "id": 2,
    "page_category_id": 1,
    "title": "Contact",
    "url": "contact",
    "content": "Contact with us!",
    "type": "contact",
    "seo_keywords": "contact",
    "seo_description": "Contact with us!",
    "add_to_header": 1,
    "add_to_footer": 0,
    "created_date": "2017-03-26 13:00:00",
    "modified_date": "2017-03-26 13:00:00",
    "deleted": 0
  },
  {
    "id": 3,
    "page_category_id": 2,
    "title": "Spring sales",
    "url": "spring-sales",
    "content": "Spring sales",
    "type": "standard",
    "seo_keywords": "spring, sales",
    "seo_description": "Spring sales",
    "add_to_header": 0,
    "add_to_footer": 1,
    "created_date": "2017-03-26 13:00:00",
    "modified_date": "2017-03-26 13:00:00",
    "deleted": 0
  },
  {
    "id": 4,
    "page_category_id": 2,
    "title": "For Gamers",
    "url": "for-gamers",
    "content": "For Gamers",
    "type": "standard",
    "seo_keywords": "gamers",
    "seo_description": "For Gamers",
    "add_to_header": 0,
    "add_to_footer": 1,
    "created_date": "2017-03-26 13:00:00",
    "modified_date": "2017-03-26 13:00:00",
    "deleted": 0
  },
  {
    "id": 5,
    "page_category_id": 2,
    "title": "For Office",
    "url": "for-office",
    "content": "For Office",
    "type": "standard",
    "seo_keywords": "office",
    "seo_description": "For Office",
    "add_to_header": 0,
    "add_to_footer": 1,
    "created_date": "2017-03-26 13:00:00",
    "modified_date": "2017-03-26 13:00:00",
    "deleted": 0
  },
  {
    "id": 6,
    "page_category_id": 2,
    "title": "For Home",
    "url": "for-home",
    "content": "For Home",
    "type": "standard",
    "seo_keywords": "home",
    "seo_description": "For Home",
    "add_to_header": 0,
    "add_to_footer": 1,
    "created_date": "2017-03-26 13:00:00",
    "modified_date": "2017-03-26 13:00:00",
    "deleted": 0
  },
  {
    "id": 7,
    "page_category_id": 3,
    "title": "Samsung",
    "url": "samsung",
    "content": "Samsung",
    "type": "standard",
    "seo_keywords": "samsung",
    "seo_description": "Samsung",
    "add_to_header": 0,
    "add_to_footer": 1,
    "created_date": "2017-03-26 13:00:00",
    "modified_date": "2017-03-26 13:00:00",
    "deleted": 0
  },
  {
    "id": 8,
    "page_category_id": 3,
    "title": "Apple",
    "url": "apple",
    "content": "Apple",
    "type": "standard",
    "seo_keywords": "apple",
    "seo_description": "Apple",
    "add_to_header": 0,
    "add_to_footer": 1,
    "created_date": "2017-03-26 13:00:00",
    "modified_date": "2017-03-26 13:00:00",
    "deleted": 0
  },
  {
    "id": 9,
    "page_category_id": 3,
    "title": "Lenovo",
    "url": "lenovo",
    "content": "Lenovo",
    "type": "standard",
    "seo_keywords": "lenovo",
    "seo_description": "Lenovo",
    "add_to_header": 0,
    "add_to_footer": 1,
    "created_date": "2017-03-26 13:00:00",
    "modified_date": "2017-03-26 13:00:00",
    "deleted": 0
  },
  {
    "id": 10,
    "page_category_id": 3,
    "title": "MSI",
    "url": "msi",
    "content": "MSI",
    "type": "standard",
    "seo_keywords": "msi",
    "seo_description": "MSI",
    "add_to_header": 0,
    "add_to_footer": 1,
    "created_date": "2017-03-26 13:00:00",
    "modified_date": "2017-03-26 13:00:00",
    "deleted": 0
  }
]