[
  {
    "id": 1,
    "payment_api_id": null,
    "name": "Standard payment",
    "icon": null,
    "description": "Pay in bank, in a post office or by your own online account",
    "cost": 0,
    "active": 1,
    "deleted": 0
  },
  {
    "id": 2,
    "payment_api_id": 1,
    "name": "PayU online payment",
    "icon": null,
    "description": "Express online payment by PayU",
    "cost": 2.99,
    "active": 1,
    "deleted": 0
  },
  {
    "id": 3,
    "payment_api_id": null,
    "name": "PayPal online payment",
    "icon": null,
    "description": "Express online payment by PayPal",
    "cost": 1.99,
    "active": 1,
    "deleted": 0
  }
]