[
  {
    "id": 1,
    "category_id": 5,
    "discount_id": null,
    "name": "Apple MacBook Pro",
    "brand": "Apple",
    "processed_name": "apple-macbook-pro",
    "description": "<div class='row text-left fresh-content' style='margin-left:-15px;margin-right:-15px;'><br><div class='col-md-10' style='min-height:1px;padding-left:15px;padding-right:15px;float:left;width:974.984px;'><h2 class='text-left'>Nowy, rewolucyjny sposób obsługi Maca</h2><p style='margin:0px;line-height:1.4;letter-spacing:.6px;color:#4d4d4d;padding-top:10px;padding-bottom:10px;'>Touch Bar wyświetla najważniejsze narzędzia na klawiaturze. Śledzi, co robisz, i automatycznie dostosowuje się do Twoich działań, więc ze wszystkim uporasz się sprawniej niż kiedykolwiek. Od razu wiesz, jak go używać, bo pokazuje to, co już znasz. Jedno dotknięcie wystarczy, by użyć skrótów, emotikon i innych funkcji. Ruchem palca przewiniesz film w trybie pełnoekranowym, a stukając, możesz przeglądać i edytować zdjęcia. Na Macu debiutuje też czytnik Touch ID, więc masz teraz natychmiastowy dostęp do loginów i wielu innych funkcji.</p><img style='border:0px;vertical-align:middle;margin-top:30px;margin-bottom:40px;width:944.984px;' src='https://allegro.stati.pl/AllegroIMG/PRODUCENCI/APPLE/NEWMacBookPro/a11.jpg??' alt=''></div></div><div class='row text-left fresh-content' style='margin-left:-15px;margin-right:-15px;'><br><div class='col-md-10' style='min-height:1px;padding-left:15px;padding-right:15px;float:left;width:974.984px;'><h2 class='text-left'>Najjaśniejszy i najbarwniejszy ekran w notebooku Mac</h2><p style='margin:0px;line-height:1.4;letter-spacing:.6px;color:#4d4d4d;padding-top:10px;padding-bottom:10px;'>Żaden notebook Mac nie miał tak doskonałego wyświetlacza jak nowy MacBook Pro. Silniejsze podświetlenie LED i większy kontrast zapewniają głębsze czernie i czystsze biele. Większa powierzchnia użyteczna pikseli w połączeniu ze zmienną częstotliwością odświeżania zmniejsza zużycie energii. A wprowadzona po raz pierwszy w historii notebooków Mac szeroka gama kolorów pozwala wyświetlać intensywniejsze odcienie czerwieni i zieleni. Obrazy są dzięki temu jeszcze bliższe rzeczywistości i bogatsze w szczegóły. A to ma ogromne znaczenie w projektowaniu graficznym, korekcji barw i montażu wideo.</p><img style='border:0px;vertical-align:middle;margin-top:30px;margin-bottom:40px;width:944.984px;' src='https://allegro.stati.pl/AllegroIMG/PRODUCENCI/APPLE/NEWMacBookPro/a5.jpg' alt=''></div></div><div class='row text-left fresh-content' style='margin-left:-15px;margin-right:-15px;'><br><div class='col-md-10' style='min-height:1px;padding-left:15px;padding-right:15px;float:left;width:974.984px;'><h2 class='text-left'>Wydajność</h2><p style='margin:0px;line-height:1.4;letter-spacing:.6px;color:#4d4d4d;padding-top:10px;padding-bottom:10px;'>Moc i mobilność – tu nowy MacBook Pro też wyraźnie podnosi poprzeczkę. Teraz każdy pomysł zrealizujesz szybciej i lepiej, bo masz do dyspozycji zaawansowaną grafikę, potężne procesory, najnowocześniejszą pamięć masową i mnóstwo innych przełomowych rozwiązań. Ten sprzęt to nie żarty.</p><ul style='margin:0px 0px 0px -15px;padding-top:20px;padding-bottom:0px;'><li>Szybsza pamięć flash - MacBook Pro jest wyposażony w półprzewodnikową pamięć masową (SSD), która działa jeszcze szybciej niż w sprzęcie poprzedniej generacji, osiągając szybkość odczytu sekwencyjnego 3,1 GB/s. Również pamięć RAM MacBooka Pro jest teraz szybsza niż kiedykolwiek. Udoskonalone komponenty tworzą komputer, który sprawniej się uruchamia, płynniej obsługuje kilka aplikacji jednocześnie i błyskawicznie importuje nawet największe pliki.</li><li>Procesory dają mnóstwo mocy - Procesory Intel Core szóstej generacji dają MacBookowi Pro niesamowitą moc, której nie zabraknie nawet, gdy obciążysz go tak wymagającymi zadaniami jak rendering modeli 3D i kodowanie wideo. Natomiast przy lżejszych pracach, jak przeglądanie Internetu czy sprawdzanie poczty, bardzo oszczędnie obchodzą się z energią.</li><li>Niesamowita bateria na cały dzień - smuklejszej obudowie nowego MacBooka Pro zmieścił się szybszy komputer i bateria, która wciąż wystarcza na cały dzień pracy – do 10 godzin w wersji 13-calowej i na 10 godzin w wersji 15‑calowej. Zawsze masz więc dość czasu na streamowanie, pracę czy zabawę. Nawet daleko od gniazdka.</li></ul><img style='border:0px;vertical-align:middle;margin-top:30px;margin-bottom:40px;width:944.984px;' src='https://allegro.stati.pl/AllegroIMG/PRODUCENCI/APPLE/NEWMacBookPro/a7.jpg' alt=''></div></div><div class='row text-left fresh-content' style='margin-left:-15px;margin-right:-15px;'><br><div class='col-md-10' style='min-height:1px;padding-left:15px;padding-right:15px;float:left;width:974.984px;'><h2 class='text-left'>Udoskonalone chłodzenie</h2><p style='margin:0px;line-height:1.4;letter-spacing:.6px;color:#4d4d4d;padding-top:10px;padding-bottom:10px;'>Im smuklejszy notebook, tym mniej miejsca na chłodzenie. Dlatego w MacBooku Pro pojawiły się udoskonalenia poprawiające skuteczność odprowadzania ciepła – przepływ powietrza zwiększa się w trakcie obciążających zadań, takich jak montaż wideo, granie w gry o rozbudowanej grafice czy przesyłanie obszernych plików.</p><img style='border:0px;vertical-align:middle;margin-top:30px;margin-bottom:40px;width:944.984px;' src='https://allegro.stati.pl/AllegroIMG/PRODUCENCI/APPLE/NEWMacBookPro/a2.jpg' alt=''></div></div><div class='row text-left fresh-content' style='margin-left:-15px;margin-right:-15px;'><br><div class='col-md-10' style='min-height:1px;padding-left:15px;padding-right:15px;float:left;width:974.984px;'><h2 class='text-left'>Będzie głośno</h2><p style='margin:0px;line-height:1.4;letter-spacing:.6px;color:#4d4d4d;padding-top:10px;padding-bottom:10px;'>Głośniki zostały kompletnie przebudowane. Mają dwa razy szerszy zakres dynamiczny, grają nawet o 58% głośniej, a ich basy robią wrażenie dwa i pół razy mocniejszym uderzeniem. Ponieważ są teraz bezpośrednio połączone z zasilaniem systemu, mogą osiągać trzykrotnie większą moc szczytową. Z takimi głośnikami MacBook Pro jest idealnym rozwiązaniem dla tych, którzy muzykę miksują po drodze, wideo montują w plenerze, a filmy oglądają w podróży.</p><img style='border:0px;vertical-align:middle;margin-top:30px;margin-bottom:40px;width:944.984px;' src='https://allegro.stati.pl/AllegroIMG/PRODUCENCI/APPLE/NEWMacBookPro/a3.jpg' alt=''></div></div><div class='row text-left fresh-content' style='margin-left:-15px;margin-right:-15px;'><br><div class='col-md-10' style='min-height:1px;padding-left:15px;padding-right:15px;float:left;width:974.984px;'><h2 class='text-left'>Wygodniejsza klawiatura. Większy gładzik.</h2><p style='margin:0px;line-height:1.4;letter-spacing:.6px;color:#4d4d4d;padding-top:10px;padding-bottom:10px;'>Interakcje z nowym MacBookiem Pro są doskonalsze pod każdym względem. Przeprojektowana klawiatura wykorzystuje nowy mechanizm motylkowy drugiej generacji, starannie dopracowany, tak by klawisze były bardziej responsywne, a pisanie – komfortowe. Z kolei powiększony w porównaniu z poprzednią generacją gładzik Force Touch daje Ci więcej miejsca na gesty i pozwala wygodniej klikać.</p><img style='border:0px;vertical-align:middle;margin-top:30px;margin-bottom:40px;width:944.984px;' src='https://allegro.stati.pl/AllegroIMG/PRODUCENCI/APPLE/NEWMacBookPro/a6.jpg' alt=''></div></div><div class='row text-left fresh-content' style='margin-left:-15px;margin-right:-15px;'><br><div class='col-md-10' style='min-height:1px;padding-left:15px;padding-right:15px;float:left;width:974.984px;'><h2 class='text-left'>Tak potężnego i wszechstronnego portu jeszcze nie było</h2><p style='margin:0px;line-height:1.4;letter-spacing:.6px;color:#4d4d4d;padding-top:10px;padding-bottom:10px;'>aJeden port Thunderbolt 3 (USB-C) może przesyłać energię w obu kierunkach: ładować urządzenie albo przyjmować energię do ładowania. A ponieważ obsługuje moc nawet 100 W, za pomocą jednego przewodu możesz podłączyć stację dokującą lub monitor i jednocześnie ładować MacBooka Pro.</p><img style='border:0px;vertical-align:middle;margin-top:30px;margin-bottom:40px;width:944.984px;' src='https://allegro.stati.pl/AllegroIMG/PRODUCENCI/APPLE/NEWMacBookPro/a4.jpg' alt=''></div></div>",
    "additional_field": "",
    "previous_cost": 0,
    "cost": 8999,
    "quantity": 500,
    "available": 1,
    "bought_count": 0,
    "code": "APDSALJK32109SA",
    "type": "standard",
    "modified_date": "2017-03-24 20:00:00",
    "created_date": "2017-03-24 20:00:00",
    "recommended_product": 1,
    "promotional_product": 1,
    "check_out_product": 1,
    "deleted": 0,
    "attributes": [
      {
        "attribute_id": 1,
        "attribute_option_id": 1
      },
      {
        "attribute_id": 2,
        "attribute_option_id": 6
      },
      {
        "attribute_id": 3,
        "attribute_option_id": 7
      },
      {
        "attribute_id": 4,
        "attribute_option_id": 11
      },
      {
        "attribute_id": 5,
        "attribute_option_id": 12
      },
      {
        "attribute_id": 6,
        "attribute_option_id": 16
      },
      {
        "attribute_id": 7,
        "attribute_option_id": 22
      },
      {
        "attribute_id": 8,
        "attribute_option_id": 26
      }
    ],
    "images": [
      {
        "name": "allzbjsytaf2yjci.jpg",
        "path": "/data/products/allzbjsytaf2yjci.jpg",
        "thumb_path": "/data/products/allzbjsytaf2yjci.jpg",
        "main": 1
      },
      {
        "name": "bihv4h3s76q9rkua.jpg",
        "path": "/data/products/bihv4h3s76q9rkua.jpg",
        "thumb_path": "/data/products/bihv4h3s76q9rkua.jpg",
        "main": 0
      },
      {
        "name": "n1y4z6k56cwna15m.jpg",
        "path": "/data/products/n1y4z6k56cwna15m.jpg",
        "thumb_path": "/data/products/n1y4z6k56cwna15m.jpg",
        "main": 0
      },
      {
        "name": "r55lprm7ql4cy01t.jpg",
        "path": "/data/products/r55lprm7ql4cy01t.jpg",
        "thumb_path": "/data/products/r55lprm7ql4cy01t.jpg",
        "main": 0
      }
    ],
    "reviews": [
      {
        "user_id": 6,
        "rating": 5,
        "text": "Everything is ok. This was very good choice.",
        "accepted": 1,
        "created_date": "2017-03-24 20:00:00"
      },
      {
        "user_id": 1,
        "rating": 2,
        "text": "Broke after 2 hours. This is crap.",
        "accepted": 1,
        "created_date": "2017-03-24 20:00:00"
      }
    ],
    "upSells": [
      {
        "product_id": 1,
        "up_product_id": 30,
        "cost": 159.99
      },
      {
        "product_id": 1,
        "up_product_id": 31,
        "cost": 239.99
      },
      {
        "product_id": 1,
        "up_product_id": 32,
        "cost": 299.99
      }
    ]
  },
  {
    "id": 2,
    "category_id": 4,
    "discount_id": null,
    "name": "Lenovo Ideapad 710S",
    "brand": "Lenovo",
    "processed_name": "lenovo-ideapad-710s",
    "description": "<div class='row text-left fresh-content' style='margin-left:-15px;margin-right:-15px;font-family:'Open Sans', sans-serif;color:#333333font-size:20px;letter-spacing:.6px;'><br><div class='col-md-10' style='min-height:1px;padding-left:15px;padding-right:15px;float:left;width:974.984px;'><h2 class='text-left' style='font-family:'Open Sans', 'Open Sans Condensed', sans-serif;font-weight:300;line-height:1.2;color:#4d4d4d;margin:0px;font-size:37px;padding-bottom:10px;letter-spacing:0px;'>Procesor Intel Core i7 szóstej generacji</h2><p style='margin:0px;line-height:1.4;letter-spacing:.6px;color:#4d4d4d;padding-top:10px;padding-bottom:10px;'>Wszystkie najbardziej wymagające zadania – obsługa grafiki HD i 3D, wielozadaniowość i multimedia – są przetwarzane przez procesory Intel Core i7 szóstej generacji w sposób, który zauważysz i poczujesz. Szósta generacja procesorów Intel bazuje na 14nm mikro-architekturze Skylake. Komputery bazujące na tym innowacyjnym rozwiązaniu charakteryzują się znacznie niższym poborem energii, gwarantując jednocześnie wyższą wydajność, w porównaniu z procesorami poprzedniej generacji.</p><img style='border:0px;vertical-align:middle;margin-top:30px;margin-bottom:40px;width:944.984px;' src='https://allegro.stati.pl/AllegroIMG/PRODUCENCI/LENOVO/Ideapad710S/alto/srebrny/fresh/f2.jpg' alt='Procesor Intel Core i7 w Lenovo Ideapad 710s'></div></div><div class='row text-left fresh-content' style='margin-left:-15px;margin-right:-15px;font-family:'Open Sans', sans-serif;color:#333333;font-size:20px;letter-spacing:.6px;'><div class='col-md-10' style='min-height:1px;padding-left:15px;padding-right:15px;float:left;width:974.984px;'><h2 class='text-left' style='font-family:'Open Sans', 'Open Sans Condensed', sans-serif;font-weight:300;line-height:1.2;color:#4d4d4d;margin:0px;font-size:37px;padding-bottom:10px;letter-spacing:0px;'>Układ graficzny Intel HD Graphics</h2><p style='margin:0px;line-height:1.4;letter-spacing:.6px;color:#4d4d4d;padding-top:10px;padding-bottom:10px;'>Karta graficzna zamontowana w komputerze dostarcza wyjątkową jakość obrazu oraz dźwięk standardu kina domowego. Bez względu na to, czy grasz w gry, edytujesz nagrania wideo czy oglądasz filmy. Technologia Intel HD Graphics obejmuje wydajne funkcje zapewniające płynne, oszałamiające efekty wizualne.</p><img style='border:0px;vertical-align:middle;margin-top:30px;margin-bottom:40px;width:944.984px;' src='https://allegro.stati.pl/AllegroIMG/PRODUCENCI/LENOVO/Ideapad710S/alto/srebrny/fresh/f4.jpg' alt='układ graficzny w Lenovo Ideapad 710s'></div></div><div class='row text-left fresh-content' style='margin-left:-15px;margin-right:-15px;font-family:'Open Sans', sans-serif;color:#333333;font-size:20px;letter-spacing:.6px;'><div class='col-md-10' style='min-height:1px;padding-left:15px;padding-right:15px;float:left;width:974.984px;'><h2 class='text-left' style='font-family:'Open Sans', 'Open Sans Condensed', sans-serif;font-weight:300;line-height:1.2;color:#4d4d4d;margin:0px;font-size:37px;padding-bottom:10px;letter-spacing:0px;'>Matowa matryca</h2><p style='margin:0px;line-height:1.4;letter-spacing:.6px;color:#4d4d4d;padding-top:10px;padding-bottom:10px;'>Irytuje Cię fakt, że na ekranie monitora lepiej widzisz swoją twarz niż swój ulubiony film? Zmień to i zdecyduj się na notebooka z matową matrycą która zapewni doskonałe warunki pracy – nawet w nasłonecznionych miejscach. Pracujesz wiele godzin przed ekranem komputera? Przekonaj się, że matowa matryca mniej męczy wzrok.</p><img class='hidden-xs' style='border:0px;vertical-align:middle;margin-top:30px;margin-bottom:40px;width:944.984px;' src='https://allegro.stati.pl/AllegroIMG/SZABLON/POZOSTALE/matowy-lg.png' alt='matowy-lg.png'></div></div><div class='row text-left fresh-content' style='margin-left:-15px;margin-right:-15px;font-family:'Open Sans', sans-serif;color:#333333;font-size:20px;letter-spacing:.6px;'><div class='col-md-10' style='min-height:1px;padding-left:15px;padding-right:15px;float:left;width:974.984px;'><h2 class='text-left' style='font-family:'Open Sans', 'Open Sans Condensed', sans-serif;font-weight:300;line-height:1.2;color:#4d4d4d;margin:0px;font-size:37px;padding-bottom:10px;letter-spacing:0px;'>Matryca Full HD</h2><p style='margin:0px;line-height:1.4;letter-spacing:.6px;color:#4d4d4d;padding-top:10px;padding-bottom:10px;'>Dzięki 13.3' matrycy w rozdzielczości Full HD i technologii IPS, IdeaPad 710S cieszy jasnym i wyraźnym obrazem. To co naprawdę przyciągają wzrok, to bardzo cienka ramka (0,2') - prawie 50% cieńsza od większości laptopów tej klasy.</p><img style='border:0px;vertical-align:middle;margin-top:30px;margin-bottom:40px;width:944.984px;' src='https://allegro.stati.pl/AllegroIMG/PRODUCENCI/LENOVO/Ideapad710S/alto/srebrny/fresh/f1.jpg' alt='matryca Full HD'></div></div><div class='row text-left fresh-content' style='margin-left:-15px;margin-right:-15px;font-family:'Open Sans', sans-serif;color:#333333;font-size:20px;letter-spacing:.6px;'><div class='col-md-10' style='min-height:1px;padding-left:15px;padding-right:15px;float:left;width:974.984px;'><h2 class='text-left' style='font-family:'Open Sans', 'Open Sans Condensed', sans-serif;font-weight:300;line-height:1.2;color:#4d4d4d;margin:0px;font-size:37px;padding-bottom:10px;letter-spacing:0px;'>Elegancka i lekka obudowa</h2><p style='margin:0px;line-height:1.4;letter-spacing:.6px;color:#4d4d4d;padding-top:10px;padding-bottom:10px;'>Obudowa Lenovo IdeaPad 710S charakteryzuje się niezwykłą gracją. Wykonano ją z ogromną precyzją, dzięki czemu wszystkie elementy pasują do siebie idealnie. Nie ma mowy o nieestetycznych przerwach, czy skrzypieniu podczas pracy.<br>Pokrywę Ultrabooka wykonano ze stopu magnezu z aluminium. Dolna część powstała w całości z aluminium. Tym samym cała konstrukcja stała się bardzo sztywna, lekka i solidna. Częste podróże w torbie z pewnością nie wpłyną negatywnie na żywotność laptopa. Co więcej, metalowe powierzchnie IdeaPad 710S nie zbierają odcisków palców. To gwarantuje estetyczny wygląd w każdej sytuacji.</p><img style='border:0px;vertical-align:middle;margin-top:30px;margin-bottom:40px;width:944.984px;' src='https://allegro.stati.pl/AllegroIMG/PRODUCENCI/LENOVO/Ideapad710S/alto/srebrny/fresh/f7.jpg' alt='aluminiowa obudowa Lenovo Ideapad 710s'></div></div><div class='row text-left fresh-content' style='margin-left:-15px;margin-right:-15px;font-family:'Open Sans', sans-serif;color:#333333;font-size:20px;letter-spacing:.6px;'><div class='col-md-10' style='min-height:1px;padding-left:15px;padding-right:15px;float:left;width:974.984px;'><h2 class='text-left' style='font-family:'Open Sans', 'Open Sans Condensed', sans-serif;font-weight:300;line-height:1.2;color:#4d4d4d;margin:0px;font-size:37px;padding-bottom:10px;letter-spacing:0px;'>Dysk SSD M.2 PCIe</h2><p style='margin:0px;line-height:1.4;letter-spacing:.6px;color:#4d4d4d;padding-top:10px;padding-bottom:10px;'>Szukasz prawdziwie porażającej wydajności? Lenovo Ideapad 710S z dyskiem 256GB SSD M.2 PCIe, to idealny wybór. Dzięki szybkiemu nośnikowi danych sprostasz każdemu wyzwaniu.</p><img class='hidden-xs' style='border:0px;vertical-align:middle;margin-top:30px;margin-bottom:40px;width:944.984px;' src='https://allegro.stati.pl/AllegroIMG/SZABLON/WYKRESY/DYSKI/M2vsM2PCIe-lg.jpg' alt='M2vsM2PCIe-lg.jpg'></div></div><div class='row text-left fresh-content' style='margin-left:-15px;margin-right:-15px;font-family:'Open Sans', sans-serif;color:#333333;font-size:20px;letter-spacing:.6px;'><div class='col-md-10' style='min-height:1px;padding-left:15px;padding-right:15px;float:left;width:974.984px;'><h2 class='text-left' style='font-family:'Open Sans', 'Open Sans Condensed', sans-serif;font-weight:300;line-height:1.2;color:#4d4d4d;margin:0px;font-size:37px;padding-bottom:10px;letter-spacing:0px;'>Podświetlana klawiatura w Lenovo Ideapad 710S</h2><p style='margin:0px;line-height:1.4;letter-spacing:.6px;color:#4d4d4d;padding-top:10px;padding-bottom:10px;'>Podświetlana klawiatura ułatwia zabawę w warunkach słabego oświetlenia. Komfort i wygodę pisania zapewniają zaokrąglone klawisze.</p><img style='border:0px;vertical-align:middle;margin-top:30px;margin-bottom:40px;width:944.984px;' src='https://allegro.stati.pl/AllegroIMG/PRODUCENCI/LENOVO/Ideapad710S/alto/srebrny/fresh/f6.jpg' alt='Lenovo Ideapad 710s laptop z podświetlaną klawiaturą'></div></div><div class='row text-left fresh-content' style='margin-left:-15px;margin-right:-15px;font-family:'Open Sans', sans-serif;color:#333333;font-size:20px;letter-spacing:.6px;'><div class='col-md-10' style='min-height:1px;padding-left:15px;padding-right:15px;float:left;width:974.984px;'><h2 class='text-left' style='font-family:'Open Sans', 'Open Sans Condensed', sans-serif;font-weight:300;line-height:1.2;color:#4d4d4d;margin:0px;font-size:37px;padding-bottom:10px;letter-spacing:0px;'>Głośniki stereo JBL®</h2><p style='margin:0px;line-height:1.4;letter-spacing:.6px;color:#4d4d4d;padding-top:10px;padding-bottom:10px;'>Ideapad 710S zapewnia kinowe wrażenia dźwiękowe i jakość dorównującą występom na żywo. Wbudowane głośniki stereo JBL® dają Ci w pełni przestrzenny dźwięk, gdziekolwiek jesteś.</p><img style='border:0px;vertical-align:middle;margin-top:30px;margin-bottom:40px;width:944.984px;' src='https://allegro.stati.pl/AllegroIMG/PRODUCENCI/LENOVO/Ideapad710S/alto/srebrny/fresh/f3.jpg' alt='głośniki stereo JBL®'></div></div><div class='row text-left fresh-content' style='margin-left:-15px;margin-right:-15px;font-family:'Open Sans', sans-serif;color:#333333;font-size:20px;letter-spacing:.6px;'><div class='col-md-10' style='min-height:1px;padding-left:15px;padding-right:15px;float:left;width:974.984px;'><h2 class='text-left' style='font-family:'Open Sans', 'Open Sans Condensed', sans-serif;font-weight:300;line-height:1.2;color:#4d4d4d;margin:0px;font-size:37px;padding-bottom:10px;letter-spacing:0px;'>Błyskawicznie przeglądanie sieci</h2><p style='margin:0px;line-height:1.4;letter-spacing:.6px;color:#4d4d4d;padding-top:10px;padding-bottom:10px;'>Dzięki szybkości trzykrotnie wyższej w porównaniu do tradycyjnego Wi-Fi, moduł 802.11 a/c laptopa Ideapad 710S pozwala na przeglądanie sieci, strumieniowanie muzyki i filmów oraz udostępnianie plików z prędkością większą niż kiedykolwiek.<br>Ultraszybkie złącze USB 3.0 pozwala błyskawicznie przenosić dane pomiędzy Ideapad 710S i innymi urządzeniami. Zapewnia ono aż do 10 razy wyższy transfer danych w porównaniu z wcześniejszymi technologiami USB oraz kompatybilność ze starszymi urządzeniami.</p><img style='border:0px;vertical-align:middle;margin-top:30px;margin-bottom:40px;width:944.984px;' src='https://allegro.stati.pl/AllegroIMG/PRODUCENCI/LENOVO/Ideapad710S/alto/srebrny/fresh/f8.jpg' alt='szybkie WiFi i złącze USB 3.0'></div></div><div class='row text-left fresh-content' style='margin-left:-15px;margin-right:-15px;font-family:'Open Sans', sans-serif;color:#333333;font-size:20px;letter-spacing:.6px;'>&nbsp;</div>",
    "additional_field": "",
    "previous_cost": 0,
    "cost": 3899,
    "quantity": 500,
    "available": 1,
    "bought_count": 0,
    "code": "L3210UDSAKJ43982",
    "type": "standard",
    "modified_date": "2017-03-24 20:00:00",
    "created_date": "2017-03-24 20:00:00",
    "recommended_product": 1,
    "promotional_product": 1,
    "check_out_product": 1,
    "deleted": 0,
    "attributes": [
      {
        "attribute_id": 1,
        "attribute_option_id": 3
      },
      {
        "attribute_id": 2,
        "attribute_option_id": 4
      },
      {
        "attribute_id": 3,
        "attribute_option_id": 8
      },
      {
        "attribute_id": 4,
        "attribute_option_id": 9
      },
      {
        "attribute_id": 5,
        "attribute_option_id": 15
      },
      {
        "attribute_id": 6,
        "attribute_option_id": 17
      },
      {
        "attribute_id": 7,
        "attribute_option_id": 22
      },
      {
        "attribute_id": 8,
        "attribute_option_id": 27
      }
    ],
    "images": [
      {
        "name": "5mbfy1xdkarz9hrq.jpg",
        "path": "/data/products/5mbfy1xdkarz9hrq.jpg",
        "thumb_path": "/data/products/5mbfy1xdkarz9hrq.jpg",
        "main": 1
      },
      {
        "name": "13g5806rb8ibn7v8.jpg",
        "path": "/data/products/13g5806rb8ibn7v8.jpg",
        "thumb_path": "/data/products/13g5806rb8ibn7v8.jpg",
        "main": 0
      },
      {
        "name": "ndoaez7zazzjp24h.jpg",
        "path": "/data/products/ndoaez7zazzjp24h.jpg",
        "thumb_path": "/data/products/ndoaez7zazzjp24h.jpg",
        "main": 0
      },
      {
        "name": "nvndkz9kc9hzf7n4.jpg",
        "path": "/data/products/nvndkz9kc9hzf7n4.jpg",
        "thumb_path": "/data/products/nvndkz9kc9hzf7n4.jpg",
        "main": 0
      }
    ],
    "reviews": [],
    "upSells": [
      {
        "product_id": 1,
        "up_product_id": 30,
        "cost": 159.99
      },
      {
        "product_id": 1,
        "up_product_id": 31,
        "cost": 239.99
      },
      {
        "product_id": 1,
        "up_product_id": 32,
        "cost": 299.99
      }
    ]
  },
  {
    "id": 3,
    "category_id": 6,
    "discount_id": null,
    "name": "Acer Swift 3",
    "brand": "Acer",
    "processed_name": "acer-swift-3",
    "description": "<div class='row text-left fresh-content' style='margin-left:-15px;margin-right:-15px;font-family:'Open Sans', sans-serif;color:#333333;font-size:20px;letter-spacing:.6px;'><div class='col-md-10' style='min-height:1px;padding-left:15px;padding-right:15px;float:left;width:974.984px;'><h2 class='text-left' style='font-family:'Open Sans', 'Open Sans Condensed', sans-serif;font-weight:300;line-height:1.2;color:#4d4d4d;margin:0px;font-size:37px;padding-bottom:10px;letter-spacing:0px;'>Procesor Intel Core i3 szóstej generacji</h2><p style='margin:0px;line-height:1.4;letter-spacing:.6px;color:#4d4d4d;padding-top:10px;padding-bottom:10px;'>Skylake to kryptonim nowego procesora 6 generacji. Wszystkie najbardziej wymagające zadania – obsługa grafiki HD i 3D, wielozadaniowość i multimedia – są przetwarzane przez procesory Intel Core i3 szóstej generacji w sposób, który zauważysz i poczujesz. Szósta generacja procesorów Intel bazuje na 14nm mikro-architekturze Skylake. Komputery bazujące na tym innowacyjnym rozwiązaniu charakteryzują się znacznie niższym poborem energii, gwarantując jednocześnie wyższą wydajność, w porównaniu z procesorami poprzedniej generacji.</p><img style='border:0px;vertical-align:middle;margin-top:30px;margin-bottom:40px;width:944.984px;' src='https://allegro.stati.pl/AllegroIMG/PRODUCENCI/ACER/Swift3/a8.jpg' alt='Procesor Intel Core i5'></div></div><div class='row text-left fresh-content' style='margin-left:-15px;margin-right:-15px;font-family:'Open Sans', sans-serif;color:#333333;font-size:20px;letter-spacing:.6px;'><br><div class='col-md-10' style='min-height:1px;padding-left:15px;padding-right:15px;float:left;width:974.984px;'><h2 class='text-left' style='font-family:'Open Sans', 'Open Sans Condensed', sans-serif;font-weight:300;line-height:1.2;color:#4d4d4d;margin:0px;font-size:37px;padding-bottom:10px;letter-spacing:0px;'>Układ graficzny Intel HD Graphics</h2><p style='margin:0px;line-height:1.4;letter-spacing:.6px;color:#4d4d4d;padding-top:10px;padding-bottom:10px;'>Karta graficzna zamontowana w komputerze dostarcza wyjątkową jakość obrazu oraz dźwięk standardu kina domowego. Bez względu na to, czy grasz w gry, edytujesz nagrania wideo czy oglądasz filmy. Technologia Intel HD Graphics obejmuje wydajne funkcje zapewniające płynne, oszałamiające efekty wizualne.</p><img style='border:0px;vertical-align:middle;margin-top:30px;margin-bottom:40px;width:944.984px;' src='https://allegro.stati.pl/AllegroIMG/PRODUCENCI/ACER/Swift3/a9.jpg' alt='Karta graficzna Intel HD Graphics'></div></div><div class='row text-left fresh-content' style='margin-left:-15px;margin-right:-15px;font-family:'Open Sans', sans-serif;color:#333333;font-size:20px;letter-spacing:.6px;'><br><div class='col-md-10' style='min-height:1px;padding-left:15px;padding-right:15px;float:left;width:974.984px;'><h2 class='text-left' style='font-family:'Open Sans', 'Open Sans Condensed', sans-serif;font-weight:300;line-height:1.2;color:#4d4d4d;margin:0px;font-size:37px;padding-bottom:10px;letter-spacing:0px;'>Matowa matryca</h2><p style='margin:0px;line-height:1.4;letter-spacing:.6px;color:#4d4d4d;padding-top:10px;padding-bottom:10px;'>Irytuje Cię fakt, że na ekranie lepiej widzisz swoją twarz niż swój ulubiony film? Zmień to i zdecyduj się na notebooka z matową matrycą która zapewni doskonałe warunki pracy – nawet w nasłonecznionych miejscach. Pracujesz wiele godzin przed ekranem komputera? Przekonaj się, że matowa matryca mniej męczy wzrok.</p><img class='c1 hidden-xs' style='border:0px;vertical-align:middle;margin-top:30px;margin-bottom:40px;width:944.984px;' src='https://alto.stati.pl/test/xsection/img/f9.jpg' alt='f9.jpg'></div></div><div class='row text-left fresh-content' style='margin-left:-15px;margin-right:-15px;font-family:'Open Sans', sans-serif;color:#333333;font-size:20px;letter-spacing:.6px;'><br><div class='col-md-10' style='min-height:1px;padding-left:15px;padding-right:15px;float:left;width:974.984px;'><h2 class='text-left' style='font-family:'Open Sans', 'Open Sans Condensed', sans-serif;font-weight:300;line-height:1.2;color:#4d4d4d;margin:0px;font-size:37px;padding-bottom:10px;letter-spacing:0px;'>Swift 3</h2><p style='margin:0px;line-height:1.4;letter-spacing:.6px;color:#4d4d4d;padding-top:10px;padding-bottom:10px;'>Aluminiowa obudowa jest przyjemna w dotyku i nadaje laptopowi osobowość. Swift 3 ma 17,9 mm grubości i waży 1,5 kg, dzięki czemu jest stylowy, smukły i łatwy w przenoszeniu.</p><img style='border:0px;vertical-align:middle;margin-top:30px;margin-bottom:40px;width:944.984px;' src='https://allegro.stati.pl/AllegroIMG/PRODUCENCI/ACER/Swift3/a4.jpg' alt=''></div></div><div class='row text-left fresh-content' style='margin-left:-15px;margin-right:-15px;font-family:'Open Sans', sans-serif;color:#333333;font-size:20px;letter-spacing:.6px;'><br><div class='col-md-10' style='min-height:1px;padding-left:15px;padding-right:15px;float:left;width:974.984px;'><h2 class='text-left' style='font-family:'Open Sans', 'Open Sans Condensed', sans-serif;font-weight:300;line-height:1.2;color:#4d4d4d;margin:0px;font-size:37px;padding-bottom:10px;letter-spacing:0px;'>Acer Color Intelligence™</h2><p style='margin:0px;line-height:1.4;letter-spacing:.6px;color:#4d4d4d;padding-top:10px;padding-bottom:10px;'>Technologia Acer Color Intelligence™ dynamicznie dostosowuje współczynnik gamma i saturację w czasie rzeczywistym, a także optymalizuje kolorystykę, jasność i nasycenie bez przycinania i nadmiernego nasycenia.</p><img style='border:0px;vertical-align:middle;margin-top:30px;margin-bottom:40px;width:944.984px;' src='https://allegro.stati.pl/AllegroIMG/PRODUCENCI/ACER/Swift3/a2.jpg' alt=''></div></div><div class='row text-left fresh-content' style='margin-left:-15px;margin-right:-15px;font-family:'Open Sans', sans-serif;color:#333333;font-size:20px;letter-spacing:.6px;'><br><div class='col-md-10' style='min-height:1px;padding-left:15px;padding-right:15px;float:left;width:974.984px;'><h2 class='text-left' style='font-family:'Open Sans', 'Open Sans Condensed', sans-serif;font-weight:300;line-height:1.2;color:#4d4d4d;margin:0px;font-size:37px;padding-bottom:10px;letter-spacing:0px;'>Wydajna praca</h2><p style='margin:0px;line-height:1.4;letter-spacing:.6px;color:#4d4d4d;padding-top:10px;padding-bottom:10px;'>Swift 3 zapewnia do 12 godzin pracy na baterii, nie trzeba więc podłączać go do prądu podczas podróży z Dubaju do Hong Kongu i jeszcze przez kawałek drogi.</p><p style='margin:0px;line-height:1.4;letter-spacing:.6px;color:#4d4d4d;padding-top:10px;padding-bottom:10px;'>Zintegrowany czytnik linii papilarnych współpracuje z Windows Hello, dzięki czemu możesz zalogować się do komputera Swift 3 jednym dotknięciem.</p><img style='border:0px;vertical-align:middle;margin-top:30px;margin-bottom:40px;width:944.984px;' src='https://allegro.stati.pl/AllegroIMG/PRODUCENCI/ACER/Swift3/a5.jpg' alt=''></div></div><div class='row text-left fresh-content' style='margin-left:-15px;margin-right:-15px;font-family:'Open Sans', sans-serif;color:#333333;font-size:20px;letter-spacing:.6px;'><br><div class='col-md-10' style='min-height:1px;padding-left:15px;padding-right:15px;float:left;width:974.984px;'><h2 class='text-left' style='font-family:'Open Sans', 'Open Sans Condensed', sans-serif;font-weight:300;line-height:1.2;color:#4d4d4d;margin:0px;font-size:37px;padding-bottom:10px;letter-spacing:0px;'>Stała łączność</h2><ul style='margin:0px 0px 0px -15px;padding-top:20px;padding-bottom:0px;'><li style='font-family:'Open Sans', 'Open Sans Condensed', sans-serif;line-height:1.5;padding-bottom:10px;'>Korzystaj z łączności bezprzewodowej, która jest nawet 3 razy szybsza od dotychczasowej technologii 2x2 802.11ac MU-MIMO.</li><li style='font-family:'Open Sans', 'Open Sans Condensed', sans-serif;line-height:1.5;padding-bottom:10px;'>USB 3.0 i 3.1 Type-C™ - Port USB 3.1 typu C zapewnia ultraszybki transfer danych i błyskawiczne ładowanie oraz wyświetlanie, a port USB 3.0 pozwala na ładowanie urządzeń nawet wtedy, gdy laptop jest odłączony od zasilania.</li><li style='font-family:'Open Sans', 'Open Sans Condensed', sans-serif;line-height:1.5;padding-bottom:10px;'>Certyfikat Skype for Business - Oznacza on, że mikrofon, głośniki i kamera internetowa HD komputera Swift 3 będą doskonale współpracować z programem Skype for Business, zapewniając Ci wyraźne czaty internetowe i spotkania w wysokiej jakości.</li></ul><img style='border:0px;vertical-align:middle;margin-top:30px;margin-bottom:40px;width:944.984px;' src='https://allegro.stati.pl/AllegroIMG/PRODUCENCI/ACER/Swift3/a7.jpg' alt=''></div></div><div class='row text-left fresh-content' style='margin-left:-15px;margin-right:-15px;font-family:'Open Sans', sans-serif;color:#333333;font-size:20px;letter-spacing:.6px;'><br><div class='col-md-10' style='min-height:1px;padding-left:15px;padding-right:15px;float:left;width:974.984px;'><h2 class='text-left' style='font-family:'Open Sans', 'Open Sans Condensed', sans-serif;font-weight:300;line-height:1.2;color:#4d4d4d;margin:0px;font-size:37px;padding-bottom:10px;letter-spacing:0px;'>Wysoka jakość dźwięku</h2><p style='margin:0px;line-height:1.4;letter-spacing:.6px;color:#4d4d4d;padding-top:10px;padding-bottom:10px;'>Głośniki Acer TrueHarmony™ wykorzystują papierową membranę stożkową, która jest wyłożona zaawansowanym materiałem piankowym. Konstrukcja taka zapewnia dokładniejszy i pełniejszy dźwięk.</p><img style='border:0px;vertical-align:middle;margin-top:30px;margin-bottom:40px;width:944.984px;' src='https://allegro.stati.pl/AllegroIMG/PRODUCENCI/ACER/Swift3/a1.jpg' alt=''></div></div><div class='row text-left fresh-content' style='margin-left:-15px;margin-right:-15px;font-family:'Open Sans', sans-serif;color:#333333;font-size:20px;letter-spacing:.6px;'><br><div class='col-md-10' style='min-height:1px;padding-left:15px;padding-right:15px;float:left;width:974.984px;'><h2 class='text-left' style='font-family:'Open Sans', 'Open Sans Condensed', sans-serif;font-weight:300;line-height:1.2;color:#4d4d4d;margin:0px;font-size:37px;padding-bottom:10px;letter-spacing:0px;'>Podświetlana klawiatura</h2><p style='margin:0px;line-height:1.4;letter-spacing:.6px;color:#4d4d4d;padding-top:10px;padding-bottom:10px;'>Laptop wyposażony jest w wygodną, podświetlaną klawiaturę, dzięki której bez problemu można pracować w ciemnych i niedoświetlonych pomieszczeniach. Jest to idealne rozwiązanie dla oczekujących pełnego komfortu podczas użytkowania notebooka.</p><img style='border:0px;vertical-align:middle;margin-top:30px;margin-bottom:40px;width:944.984px;' src='https://allegro.stati.pl/AllegroIMG/PRODUCENCI/ACER/Swift3/a6.jpg' alt=''></div></div>",
    "additional_field": "",
    "previous_cost": 0,
    "cost": 2799,
    "quantity": 500,
    "available": 1,
    "bought_count": 0,
    "code": "AC93108DSA8231",
    "type": "standard",
    "modified_date": "2017-03-24 20:00:00",
    "created_date": "2017-03-24 20:00:00",
    "recommended_product": 1,
    "promotional_product": 1,
    "check_out_product": 1,
    "deleted": 0,
    "attributes": [
      {
        "attribute_id": 1,
        "attribute_option_id": 1
      },
      {
        "attribute_id": 2,
        "attribute_option_id": 5
      },
      {
        "attribute_id": 3,
        "attribute_option_id": 8
      },
      {
        "attribute_id": 4,
        "attribute_option_id": 9
      },
      {
        "attribute_id": 5,
        "attribute_option_id": 15
      },
      {
        "attribute_id": 6,
        "attribute_option_id": 17
      },
      {
        "attribute_id": 7,
        "attribute_option_id": 25
      },
      {
        "attribute_id": 8,
        "attribute_option_id": 27
      }
    ],
    "images": [
      {
        "name": "p1adtyy581chag1g.jpg",
        "path": "/data/products/p1adtyy581chag1g.jpg",
        "thumb_path": "/data/products/p1adtyy581chag1g.jpg",
        "main": 1
      },
      {
        "name": "5c9xpeeh7elqptq1.jpg",
        "path": "/data/products/5c9xpeeh7elqptq1.jpg",
        "thumb_path": "/data/products/5c9xpeeh7elqptq1.jpg",
        "main": 0
      },
      {
        "name": "vh4z4nii830v78c3.jpg",
        "path": "/data/products/vh4z4nii830v78c3.jpg",
        "thumb_path": "/data/products/vh4z4nii830v78c3.jpg",
        "main": 0
      }
    ],
    "reviews": [],
    "upSells": [
      {
        "product_id": 1,
        "up_product_id": 30,
        "cost": 159.99
      },
      {
        "product_id": 1,
        "up_product_id": 31,
        "cost": 239.99
      },
      {
        "product_id": 1,
        "up_product_id": 32,
        "cost": 299.99
      }
    ]
  },
  {
    "id": 4,
    "category_id": 7,
    "discount_id": null,
    "name": "ASUS ROG PG258Q",
    "brand": "Asus",
    "processed_name": "asus-rog-pg258q",
    "description": "<div class='row text-left fresh-content' style='margin-left:-15px;margin-right:-15px;font-family:'Open Sans', sans-serif;color:#333333;font-size:20px;letter-spacing:.6px;'><div class='col-md-10' style='min-height:1px;padding-left:15px;padding-right:15px;float:left;width:999.984px;'><h2 class='text-left' style='font-family:'Open Sans', 'Open Sans Condensed', sans-serif;font-weight:300;line-height:1.2;color:#4d4d4d;margin:0px;font-size:37px;padding-bottom:10px;letter-spacing:0px;'>Technologia G-SYNC</h2><p style='margin:0px;line-height:1.4;letter-spacing:.6px;color:#4d4d4d;padding-top:10px;padding-bottom:10px;'>Połączenie częstotliwości odświeżania 240Hz monitora ROG Swift PG258Q z technologią NVIDIA G-SYNC, umożliwia najbardziej płynną, najszybszą i najbardziej zapierającą dech w piersiach rozgrywkę, jaką można sobie wyobrazić. G-SYNC synchronizuje częstotliwość odświeżania Swift PG258Q do karty graficznej GeForce GTX zainstalowanej w komputerze lub w laptopie, aby wyeliminować smużenie ekranu i ścinanie obrazu.</p><p style='margin:0px;line-height:1.4;letter-spacing:.6px;color:#4d4d4d;padding-top:10px;padding-bottom:10px;'>Dodatkowa technologia Ultra Low Motion Blur (ULMB) sprawia, że obiekty będące w ruchu widać ostrzej, więc rozgrywka jest bardziej płynna i elastyczna.</p><img style='border:0px;vertical-align:middle;margin-top:30px;margin-bottom:40px;width:969.984px;' src='https://allegro.stati.pl/AllegroIMG/PRODUCENCI/ASUS/ROG%20PG258Q%20czarny/f9.jpg' alt='ASUS ROG PG258Q Technologia G-SYNC'></div></div><div class='row text-left fresh-content' style='margin-left:-15px;margin-right:-15px;font-family:'Open Sans', sans-serif;color:#333333;font-size:20px;letter-spacing:.6px;'><br><div class='col-md-10' style='min-height:1px;padding-left:15px;padding-right:15px;float:left;width:999.984px;'><h2 class='text-left' style='font-family:'Open Sans', 'Open Sans Condensed', sans-serif;font-weight:300;line-height:1.2;color:#4d4d4d;margin:0px;font-size:37px;padding-bottom:10px;letter-spacing:0px;'>Krótki czas reakcji</h2><p style='margin:0px;line-height:1.4;letter-spacing:.6px;color:#4d4d4d;padding-top:10px;padding-bottom:10px;'>ROG Swift PG258Q to monitor najszybszy w swojej klasie, posiadający czas reakcji 1 ms, co całkowicie eliminuje smużenie i rozmycie obiektów w ruchu. Jest to szczególnie przydatne w grach o szybkim tempie – możesz teraz brać zakręty jak zawodowy kierowca wyścigowy lub oddać niemożliwy strzał.</p><img style='border:0px;vertical-align:middle;margin-top:30px;margin-bottom:40px;width:969.984px;' src='https://allegro.stati.pl/AllegroIMG/PRODUCENCI/ASUS/ROG%20PG258Q%20czarny/f5.jpg' alt='ASUS ROG PG258Q Czas Reakcji'></div></div><div class='row text-left fresh-content' style='margin-left:-15px;margin-right:-15px;font-family:'Open Sans', sans-serif;color:#333333;font-size:20px;letter-spacing:.6px;'><br><div class='col-md-10' style='min-height:1px;padding-left:15px;padding-right:15px;float:left;width:999.984px;'><h2 class='text-left' style='font-family:'Open Sans', 'Open Sans Condensed', sans-serif;font-weight:300;line-height:1.2;color:#4d4d4d;margin:0px;font-size:37px;padding-bottom:10px;letter-spacing:0px;'>Futurystyczny wygląd</h2><p style='margin:0px;line-height:1.4;letter-spacing:.6px;color:#4d4d4d;padding-top:10px;padding-bottom:10px;'>Monitor ROG Swift PG258Q posiada futurystyczny wygląd, inspirowany grami – wyraziste i odważne linie, jak również wbudowane w podstawę efekty świetlne dodające grze atmosfery.</p><img style='border:0px;vertical-align:middle;margin-top:30px;margin-bottom:40px;width:969.984px;' src='https://allegro.stati.pl/AllegroIMG/PRODUCENCI/ASUS/ROG%20PG258Q%20czarny/f8.jpg' alt='ASUS ROG PG258Q Wygląd'></div></div><div class='row text-left fresh-content' style='margin-left:-15px;margin-right:-15px;font-family:'Open Sans', sans-serif;color:#333333;font-size:20px;letter-spacing:.6px;'><br><div class='col-md-10' style='min-height:1px;padding-left:15px;padding-right:15px;float:left;width:999.984px;'><h2 class='text-left' style='font-family:'Open Sans', 'Open Sans Condensed', sans-serif;font-weight:300;line-height:1.2;color:#4d4d4d;margin:0px;font-size:37px;padding-bottom:10px;letter-spacing:0px;'>Ogromne możliwości</h2><p style='margin:0px;line-height:1.4;letter-spacing:.6px;color:#4d4d4d;padding-top:10px;padding-bottom:10px;'>Klawisz skrótu GamePlus marki ASUS umożliwia wprowadzanie w grze ulepszeń, takich jak nakładka celownika, timer na ekranie, licznik klatek na sekundę, czy funkcja konfiguracji kilku monitorów.</p><p style='margin:0px;line-height:1.4;letter-spacing:.6px;color:#4d4d4d;padding-top:10px;padding-bottom:10px;'>Technologia ASUS GameVisual oferuje sześć ustawień trybu wyświetlania, które optymalizują efekty wizualne dla różnych typów treści.</p><img style='border:0px;vertical-align:middle;margin-top:30px;margin-bottom:40px;width:969.984px;' src='https://allegro.stati.pl/AllegroIMG/PRODUCENCI/ASUS/ROG%20PG258Q%20czarny/f7.jpg' alt='ASUS ROG PG258Q Technologia GamePlus'></div></div><div class='row text-left fresh-content' style='margin-left:-15px;margin-right:-15px;font-family:'Open Sans', sans-serif;color:#333333;font-size:20px;letter-spacing:.6px;'><br><div class='col-md-10' style='min-height:1px;padding-left:15px;padding-right:15px;float:left;width:999.984px;'><h2 class='text-left' style='font-family:'Open Sans', 'Open Sans Condensed', sans-serif;font-weight:300;line-height:1.2;color:#4d4d4d;margin:0px;font-size:37px;padding-bottom:10px;letter-spacing:0px;'>Prosta nawigacja</h2><p style='margin:0px;line-height:1.4;letter-spacing:.6px;color:#4d4d4d;padding-top:10px;padding-bottom:10px;'>5-kierunkowy joystick nawigacyjny oraz cztery klawisze skrótów w prawym tylnym narożniku monitora zapewniają łatwy dostęp do ustawień monitora i zaawansowanych funkcji gier.</p><img style='border:0px;vertical-align:middle;margin-top:30px;margin-bottom:40px;width:969.984px;' src='https://allegro.stati.pl/AllegroIMG/PRODUCENCI/ASUS/ROG%20PG258Q%20czarny/f4.jpg' alt='ASUS ROG PG258Q Widok Z Tyłu'></div></div><div class='row text-left fresh-content' style='margin-left:-15px;margin-right:-15px;font-family:'Open Sans', sans-serif;color:#333333;font-size:20px;letter-spacing:.6px;'><br><div class='col-md-10' style='min-height:1px;padding-left:15px;padding-right:15px;float:left;width:999.984px;'><h2 class='text-left' style='font-family:'Open Sans', 'Open Sans Condensed', sans-serif;font-weight:300;line-height:1.2;color:#4d4d4d;margin:0px;font-size:37px;padding-bottom:10px;letter-spacing:0px;'>NVIDIA® 3D Vision-ready</h2><p style='margin:0px;line-height:1.4;letter-spacing:.6px;color:#4d4d4d;padding-top:10px;padding-bottom:10px;'>Monitor ROG Swift PG258Q jest kompatybilny z zestawem NVIDIA 3D Vision® 2, dzięki czemu otwiera przed użytkownikiem świat gier 3D. Wszystko czego potrzebujesz to karta graficzna NVIDIA GeForce oraz okulary 3D – od teraz gry i filmy będą jeszcze bardziej wciągające.</p><p style='margin:0px;line-height:1.4;letter-spacing:.6px;color:#4d4d4d;padding-top:10px;padding-bottom:10px;'>A dzięki zastosowaniu najnowszej technologii NVIDIA® 3D LightBoost™, możesz cieszyć się jaśniejszymi wizualizacjami 3D, bez wzrostu zużycia energii.</p><img style='border:0px;vertical-align:middle;margin-top:30px;margin-bottom:40px;width:969.984px;' src='https://allegro.stati.pl/AllegroIMG/PRODUCENCI/ASUS/ROG%20PG258Q%20czarny/f1.jpg' alt='ASUS ROG PG258Q NVIDIA® 3D Vision-ready'></div></div><div class='row text-left fresh-content' style='margin-left:-15px;margin-right:-15px;font-family:'Open Sans', sans-serif;color:#333333;font-size:20px;letter-spacing:.6px;'><br><div class='col-md-10' style='min-height:1px;padding-left:15px;padding-right:15px;float:left;width:999.984px;'><h2 class='text-left' style='font-family:'Open Sans', 'Open Sans Condensed', sans-serif;font-weight:300;line-height:1.2;color:#4d4d4d;margin:0px;font-size:37px;padding-bottom:10px;letter-spacing:0px;'>Ultracienka ramka</h2><p style='margin:0px;line-height:1.4;letter-spacing:.6px;color:#4d4d4d;padding-top:10px;padding-bottom:10px;'>Monitor PG258Q, zaprojektowany dla osób, które poszukują najlepszego stanowiska bitewnego, posiada bezramową konstrukcję, co zapewnia prawie bezproblemową konfigurację obsługi wielu monitorów i sprawia, że gra jest jeszcze bardziej wciągająca.</p><img style='border:0px;vertical-align:middle;margin-top:30px;margin-bottom:40px;width:969.984px;' src='https://allegro.stati.pl/AllegroIMG/PRODUCENCI/ASUS/ROG%20PG258Q%20czarny/f10.jpg' alt='ASUS ROG PG258Q Ultracienka ramka'></div></div><div class='row text-left fresh-content' style='margin-left:-15px;margin-right:-15px;font-family:'Open Sans', sans-serif;color:#333333;font-size:20px;letter-spacing:.6px;'><br><div class='col-md-10' style='min-height:1px;padding-left:15px;padding-right:15px;float:left;width:999.984px;'><h2 class='text-left' style='font-family:'Open Sans', 'Open Sans Condensed', sans-serif;font-weight:300;line-height:1.2;color:#4d4d4d;margin:0px;font-size:37px;padding-bottom:10px;letter-spacing:0px;'>Pozwól odpocząć oczom</h2><p style='margin:0px;line-height:1.4;letter-spacing:.6px;color:#4d4d4d;padding-top:10px;padding-bottom:10px;'>Technologia Flicker-Free pomaga zredukować migotanie ekranu, co zapewnia większy komfort i możliwość uczestniczenia w maratonach grania. Technologia ta powstała po to, aby zminimalizować zmęczenie oczu i bóle głowy, które towarzyszą długim, wciągającym sesjom grania.</p><p style='margin:0px;line-height:1.4;letter-spacing:.6px;color:#4d4d4d;padding-top:10px;padding-bottom:10px;'>Monitory ROG Swift PG258Q do gier przechodzą rygorystyczne testy wydajności i posiadają certyfikat laboratorium TÜV Rheinland, globalnego dostawcy usług technicznych, z zakresu bezpieczeństwa i certyfikacyjnych – nie migoczą i emitują niski poziom światła niebieskiego.</p><img style='border:0px;vertical-align:middle;margin-top:30px;margin-bottom:40px;width:969.984px;' src='https://allegro.stati.pl/AllegroIMG/PRODUCENCI/ASUS/ROG%20PG258Q%20czarny/f11.jpg' alt='ASUS ROG PG258Q Technologia Flicker Free'></div></div><div class='row text-left fresh-content' style='margin-left:-15px;margin-right:-15px;font-family:'Open Sans', sans-serif;color:#333333;font-size:20px;letter-spacing:.6px;'><br><div class='col-md-10' style='min-height:1px;padding-left:15px;padding-right:15px;float:left;width:999.984px;'><h2 class='text-left' style='font-family:'Open Sans', 'Open Sans Condensed', sans-serif;font-weight:300;line-height:1.2;color:#4d4d4d;margin:0px;font-size:37px;padding-bottom:10px;letter-spacing:0px;'>Konstrukcja Smart Air Vent</h2><p style='margin:0px;line-height:1.4;letter-spacing:.6px;color:#4d4d4d;padding-top:10px;padding-bottom:10px;'>Monitor ROG Swift PG258Q posiada niestandardowy radiator, który jest dwa razy większy od radiatorów, jakie można spotkać w innych monitorach, co zapewnia odpowiednie chłodzenie podczas maratonów grania.</p><p style='margin:0px;line-height:1.4;letter-spacing:.6px;color:#4d4d4d;padding-top:10px;padding-bottom:10px;'>Chłodzenie jest ponadto wspomagane przez konstrukcję typu Smart Air Vent, która wykorzystuje prądy konwekcyjne do wygenerowania przepływu powietrza w monitorze. Ten system chłodzenia bez wentylatora zapewnia cichą pracę i bezobsługowość monitora ROG Swift PG258Q.</p><p style='margin:0px;line-height:1.4;letter-spacing:.6px;color:#4d4d4d;padding-top:10px;padding-bottom:10px;'><img style='border:0px;vertical-align:middle;margin-top:30px;margin-bottom:40px;width:969.984px;' src='https://allegro.stati.pl/AllegroIMG/PRODUCENCI/ASUS/ROG%20PG258Q%20czarny/f12.jpg' alt='ASUS ROG PG258Q Chłodzenie'></p></div></div><div class='row text-left fresh-content' style='margin-left:-15px;margin-right:-15px;font-family:'Open Sans', sans-serif;color:#333333;font-size:20px;letter-spacing:.6px;'><br><div class='col-md-10' style='min-height:1px;padding-left:15px;padding-right:15px;float:left;width:999.984px;'><h2 class='text-left' style='font-family:'Open Sans', 'Open Sans Condensed', sans-serif;font-weight:300;line-height:1.2;color:#4d4d4d;margin:0px;font-size:37px;padding-bottom:10px;letter-spacing:0px;'>ASUS ZBD (Zero Bright Dot)</h2><p style='margin:0px;line-height:1.4;letter-spacing:.6px;color:#4d4d4d;padding-top:10px;padding-bottom:10px;'>ASUS od zawsze stawia na innowacje i wysoką jakość produktów. Teraz, jako jeden z liderów sprzętu IT na świecie, oferuje Ci gwarancję braku martwych pikseli w matrycach monitorów. Jeśli w ciągu 12 miesięcy od zakupu znajdziesz choć jeden martwy lub uszkodzony piksel, ASUS bezpłatnie wymieni ekran w urządzeniu.</p><p style='margin:0px;line-height:1.4;letter-spacing:.6px;color:#4d4d4d;padding-top:10px;padding-bottom:10px;'>Aby skorzystać z gwarancji wystarczy zgłosić się do serwisu ASUS. Wysoki standard jest dla ASUS najważniejszy.</p><img style='border:0px;vertical-align:middle;margin-top:30px;margin-bottom:40px;width:969.984px;' src='https://allegro.stati.pl/AllegroIMG/SZABLON/POZOSTALE/asus-zmp-12mc-1300px.jpg??' alt='ASUS Zero Bright Dot - Zero Martwych Pikseli Gwarancja'></div></div>",
    "additional_field": "",
    "previous_cost": 0,
    "cost": 2859,
    "quantity": 500,
    "available": 1,
    "bought_count": 0,
    "code": "AS287DSALJK321",
    "type": "standard",
    "modified_date": "2017-03-24 20:00:00",
    "created_date": "2017-03-24 20:00:00",
    "recommended_product": 1,
    "promotional_product": 1,
    "check_out_product": 1,
    "deleted": 0,
    "attributes": [
      {
        "attribute_id": 1,
        "attribute_option_id": 29
      },
      {
        "attribute_id": 2,
        "attribute_option_id": 6
      },
      {
        "attribute_id": 3,
        "attribute_option_id": 7
      },
      {
        "attribute_id": 8,
        "attribute_option_id": 28
      }
    ],
    "images": [
      {
        "name": "68xreqygyv30cbwi.jpg",
        "path": "/data/products/68xreqygyv30cbwi.jpg",
        "thumb_path": "/data/products/68xreqygyv30cbwi.jpg",
        "main": 1
      },
      {
        "name": "fpprjc7b8wfd8aba.jpg",
        "path": "/data/products/fpprjc7b8wfd8aba.jpg",
        "thumb_path": "/data/products/fpprjc7b8wfd8aba.jpg",
        "main": 0
      },
      {
        "name": "ibf8ww4r0ee4ycqe.jpg",
        "path": "/data/products/ibf8ww4r0ee4ycqe.jpg",
        "thumb_path": "/data/products/ibf8ww4r0ee4ycqe.jpg",
        "main": 0
      },
      {
        "name": "v52s4ti48yftuw3b.jpg",
        "path": "/data/products/v52s4ti48yftuw3b.jpg",
        "thumb_path": "/data/products/v52s4ti48yftuw3b.jpg",
        "main": 0
      }
    ],
    "reviews": [],
    "upSells": [
      {
        "product_id": 1,
        "up_product_id": 30,
        "cost": 159.99
      },
      {
        "product_id": 1,
        "up_product_id": 31,
        "cost": 239.99
      },
      {
        "product_id": 1,
        "up_product_id": 32,
        "cost": 299.99
      }
    ]
  },
  {
    "id": 5,
    "category_id": 2,
    "discount_id": null,
    "name": "Samsung A5 2017",
    "brand": "Samsung",
    "processed_name": "samsung-a5-2017",
    "description": "<div class='row text-left fresh-content' style='margin-left:-15px;margin-right:-15px;font-family:'Open Sans', sans-serif;color:#333333;font-size:20px;letter-spacing:.6px;'><div class='col-md-10' style='min-height:1px;padding-left:15px;padding-right:15px;float:left;width:974.984px;'><h2 class='text-left' style='font-family:'Open Sans', 'Open Sans Condensed', sans-serif;font-weight:300;line-height:1.2;color:#4d4d4d;margin:0px;font-size:37px;padding-bottom:10px;letter-spacing:0px;'>Design i precyzja</h2><p style='margin:0px;line-height:1.4;letter-spacing:.6px;color:#4d4d4d;padding-top:10px;padding-bottom:10px;'>Galaxy A5 (2016) zachwyci Cię elegancją i wzornictwem klasy Premium. Perfekcyjne połączenie dwóch najwyższej jakości materiałów. Delikatnie zaokrąglone krawędzie&nbsp;<span style='color:#333333;'>szkła 2.5D</span>&nbsp;gładko łączą się z metalową ramką. Przód i tył pokryty jest supertwardym szkłem&nbsp;<span style='color:#333333;'>Corning® Gorilla Glass® 4</span>. Smartfon urzeka smukłym profilem 7.3mm i wygodnie leży w dłoni. Zachwycający design to nie wszystko. Twój smartfon musi być nie tylko piękny, ale również szybki, wytrzymały i niezawodny.&nbsp; Wybierz mądrze. Wybierz swój model nowego Samsung Galaxy A. Doświadcz niezwykłej przyjemności, płynącej z użytkowania nowego Galaxy A5(2016).</p><p style='margin:0px;line-height:1.4;letter-spacing:.6px;color:#4d4d4d;padding-top:10px;padding-bottom:10px;'><img style='border:0px;vertical-align:middle;margin-top:30px;margin-bottom:40px;width:944.984px;' src='https://allegro.stati.pl/AllegroIMG/PRODUCENCI/SAMSUNG/GalaxyA5/2016/alto/c.jpg' alt='c.jpg'></p></div></div><div class='row text-left fresh-content' style='margin-left:-15px;margin-right:-15px;font-family:'Open Sans', sans-serif;color:#333333;font-size:20px;letter-spacing:.6px;'><br><div class='col-md-10' style='min-height:1px;padding-left:15px;padding-right:15px;float:left;width:974.984px;'><h2 class='text-left' style='font-family:'Open Sans', 'Open Sans Condensed', sans-serif;font-weight:300;line-height:1.2;color:#4d4d4d;margin:0px;font-size:37px;padding-bottom:10px;letter-spacing:0px;'>Szybki 8-rdzeniowy procesor i 2GB RAM</h2><p style='margin:0px;line-height:1.4;letter-spacing:.6px;color:#4d4d4d;padding-top:10px;padding-bottom:10px;'>Galaxy A5 (2016) został wyposażony w dużo lepszy*, aż&nbsp;<span style='color:#333333;'>ośmiordzeniowy procesor</span>&nbsp;o częstotliwości taktowania 1,6 GHz. Zoptymalizowany system&nbsp;<span style='color:#333333;'>Android Lolliop z nakładką TouchWiz</span>&nbsp;wspomaga pełną wielozadaniowość, a&nbsp;<span style='color:#333333;'>2GB pamięci RAM</span>&nbsp;zapewnia płynną pracę smartfona. Oglądanie filmów, słuchanie muzyki i uruchamianie kilku aplikacji jednocześnie to dla niego żaden kłopot. W końcu życie jest za krótkie na czekanie! 16 GB miejsca na dane łatwo rozbudować - hybrydowy slot kart microSD daje możliwość&nbsp;<span style='color:#333333;'>powiększenia pamięci do 128GB.</span>&nbsp;Galaxy A5 (2016) sprawdzi się zarówno w codziennym używaniu, jak i biznesie.</p><p class='sam_text-disclaimer c1' style='margin:0px;line-height:1.4;letter-spacing:.6px;color:#4d4d4d;padding-top:10px;padding-bottom:10px;'>*Względem Galaxy A5.</p><p style='margin:0px;line-height:1.4;letter-spacing:.6px;color:#4d4d4d;padding-top:10px;padding-bottom:10px;'><img style='border:0px;vertical-align:middle;margin-top:30px;margin-bottom:40px;width:944.984px;' src='https://allegro.stati.pl/AllegroIMG/PRODUCENCI/SAMSUNG/GalaxyA5/2016/alto/f.jpg' alt='f.jpg'></p></div></div><div class='row text-left fresh-content' style='margin-left:-15px;margin-right:-15px;font-family:'Open Sans', sans-serif;color:#333333;font-size:20px;letter-spacing:.6px;'><br><div class='col-md-10' style='min-height:1px;padding-left:15px;padding-right:15px;float:left;width:974.984px;'><h2 class='text-left' style='font-family:'Open Sans', 'Open Sans Condensed', sans-serif;font-weight:300;line-height:1.2;color:#4d4d4d;margin:0px;font-size:37px;padding-bottom:10px;letter-spacing:0px;'>Aparat z funkcją OIS</h2><p style='margin:0px;line-height:1.4;letter-spacing:.6px;color:#4d4d4d;padding-top:10px;padding-bottom:10px;'>Nawet najpiękniejsze chwile trwają tylko moment. Ze smartfonem Galaxy A5 (2016) nie przegapisz żadnej z nich! Tylny aparat 13 Mpix z optyczną stabilizacją obrazu OIS i przysłoną F1.9 zadbają o ostre i wyraźne zdjęcia o każdej porze dnia i nocy. 5 Mpix przedniego aparatu zapewni Ci zawsze świetne selfie Lepsza kamera nagrywa w rozdzielczości Full HD (1920 x 1080), 30 klatek/sek.</p><p style='margin:0px;line-height:1.4;letter-spacing:.6px;color:#4d4d4d;padding-top:10px;padding-bottom:10px;'><img style='border:0px;vertical-align:middle;margin-top:30px;margin-bottom:40px;width:944.984px;' src='https://allegro.stati.pl/AllegroIMG/PRODUCENCI/SAMSUNG/GalaxyA5/2016/alto/d.jpg' alt='d.jpg'></p></div></div><div class='row text-left fresh-content' style='margin-left:-15px;margin-right:-15px;font-family:'Open Sans', sans-serif;color:#333333;font-size:20px;letter-spacing:.6px;'><br><div class='col-md-10' style='min-height:1px;padding-left:15px;padding-right:15px;float:left;width:974.984px;'><h2 class='text-left' style='font-family:'Open Sans', 'Open Sans Condensed', sans-serif;font-weight:300;line-height:1.2;color:#4d4d4d;margin:0px;font-size:37px;padding-bottom:10px;letter-spacing:0px;'>Więcej znajomych</h2><p style='margin:0px;line-height:1.4;letter-spacing:.6px;color:#4d4d4d;padding-top:10px;padding-bottom:10px;'>Na pewno masz mnóstwo znajomych. A może tak zmieścić ich wszystkich na jednym zdjęciu? Nowa funkcja Wide Selfie umożliwia tworzenie 'panoramicznych' selfie, poprzez łączenie trzech zdjęć - lewego, środkowego i prawego. Teraz uchwycisz wszystkich znajomych na zdjęciu o zasięgu 110° (orientacja pionowa) lub 120° (orientacja pozioma). Funkcja auto-edycji sprawi, że będziesz wyglądać idealnie na każdym zdjęciu.</p><p style='margin:0px;line-height:1.4;letter-spacing:.6px;color:#4d4d4d;padding-top:10px;padding-bottom:10px;'><img style='border:0px;vertical-align:middle;margin-top:30px;margin-bottom:40px;width:944.984px;' src='https://allegro.stati.pl/AllegroIMG/PRODUCENCI/SAMSUNG/GalaxyA5/2016/alto/h.jpg' alt='h.jpg'></p></div></div><div class='row text-left fresh-content' style='margin-left:-15px;margin-right:-15px;font-family:'Open Sans', sans-serif;color:#333333;font-size:20px;letter-spacing:.6px;'><br><div class='col-md-10' style='min-height:1px;padding-left:15px;padding-right:15px;float:left;width:974.984px;'><h2 class='text-left' style='font-family:'Open Sans', 'Open Sans Condensed', sans-serif;font-weight:300;line-height:1.2;color:#4d4d4d;margin:0px;font-size:37px;padding-bottom:10px;letter-spacing:0px;'>Ekran HD Super AMOLED</h2><p style='margin:0px;line-height:1.4;letter-spacing:.6px;color:#4d4d4d;padding-top:10px;padding-bottom:10px;'>Olśniewający wyświetlacz w nowej serii Galaxy A zachwyca nieskazitelną ostrością&nbsp; i adaptacyjnym ekranem Alive Super AMOLED zapewniającym doskonałą jakość zarówno wewnątrz, jak i na zewnątrz. Dzięki niemu Twoje filmy i zdjęcia będą wyglądać jak żywe. Twój GALAXY A5 inteligentnie dopasuje parametry ekranu do środowiska, w którym się znajdujesz. Funkcja automatycznego dostosowania dźwięku zwiększa lub zmniejsza poziom głośności rozmów, w zależności od towarzyszącego Ci hałasu.</p><p style='margin:0px;line-height:1.4;letter-spacing:.6px;color:#4d4d4d;padding-top:10px;padding-bottom:10px;'><img style='border:0px;vertical-align:middle;margin-top:30px;margin-bottom:40px;width:944.984px;' src='https://allegro.stati.pl/AllegroIMG/PRODUCENCI/SAMSUNG/GalaxyA5/2016/alto/b.jpg' alt='b.jpg'></p></div></div><div class='row text-left fresh-content' style='margin-left:-15px;margin-right:-15px;font-family:'Open Sans', sans-serif;color:#333333;font-size:20px;letter-spacing:.6px;'><br><div class='col-md-10' style='min-height:1px;padding-left:15px;padding-right:15px;float:left;width:974.984px;'><h2 class='text-left' style='font-family:'Open Sans', 'Open Sans Condensed', sans-serif;font-weight:300;line-height:1.2;color:#4d4d4d;margin:0px;font-size:37px;padding-bottom:10px;letter-spacing:0px;'>Szybkie ładowanie</h2><p style='margin:0px;line-height:1.4;letter-spacing:.6px;color:#4d4d4d;padding-top:10px;padding-bottom:10px;'>Czas pożegnać rozładowaną baterię - Samsung Galaxy A5 (2016) ładuje się błyskawicznie. Wystarczy około 30 minut, by naładować baterię od zera do 50%. Jeszcze większa bateria pozwoli Ci dłużej surfować po sieci i korzystać z ulubionych aplikacji i gier. Udanej zabawy!</p><p style='margin:0px;line-height:1.4;letter-spacing:.6px;color:#4d4d4d;padding-top:10px;padding-bottom:10px;'><img style='border:0px;vertical-align:middle;margin-top:30px;margin-bottom:40px;width:944.984px;' src='https://allegro.stati.pl/AllegroIMG/PRODUCENCI/SAMSUNG/GalaxyA5/2016/alto/j.jpg' alt='j.jpg'></p></div></div><div class='row text-left fresh-content' style='margin-left:-15px;margin-right:-15px;font-family:'Open Sans', sans-serif;color:#333333;font-size:20px;letter-spacing:.6px;'><br><div class='col-md-10' style='min-height:1px;padding-left:15px;padding-right:15px;float:left;width:974.984px;'><h2 class='text-left' style='font-family:'Open Sans', 'Open Sans Condensed', sans-serif;font-weight:300;line-height:1.2;color:#4d4d4d;margin:0px;font-size:37px;padding-bottom:10px;letter-spacing:0px;'>Bezpieczeństwo</h2><p style='margin:0px;line-height:1.4;letter-spacing:.6px;color:#4d4d4d;padding-top:10px;padding-bottom:10px;'>Koniec z zapamiętywaniem skomplikowanych haseł. Dzięki czytnikowi linii papilarnych dostępnemu w smartfonie Galaxy A5 (2016), wystarczy jedno dotknięcie Twojego palca, by odblokować urządzenie czy zalogować się na stronie internetowej. Ochrona danych nigdy nie była tak łatwa!</p><p style='margin:0px;line-height:1.4;letter-spacing:.6px;color:#4d4d4d;padding-top:10px;padding-bottom:10px;'><img style='border:0px;vertical-align:middle;margin-top:30px;margin-bottom:40px;width:944.984px;' src='https://allegro.stati.pl/AllegroIMG/PRODUCENCI/SAMSUNG/GalaxyA5/2016/alto/i.jpg' alt='i.jpg'></p></div></div><div class='row text-left fresh-content' style='margin-left:-15px;margin-right:-15px;font-family:'Open Sans', sans-serif;color:#333333;font-size:20px;letter-spacing:.6px;'><br><div class='col-md-10' style='min-height:1px;padding-left:15px;padding-right:15px;float:left;width:974.984px;'><h2 class='text-left' style='font-family:'Open Sans', 'Open Sans Condensed', sans-serif;font-weight:300;line-height:1.2;color:#4d4d4d;margin:0px;font-size:37px;padding-bottom:10px;letter-spacing:0px;'>Smart Manager</h2><p style='margin:0px;line-height:1.4;letter-spacing:.6px;color:#4d4d4d;padding-top:10px;padding-bottom:10px;'>Aplikacja Smart Manager to dostęp do najpotrzebniejszych informacji na temat stanu baterii, przestrzeni danych, pamięci RAM, zabezpieczeń i innych. Funkcja Quick Check pozwala także na szybkie usunięcie niepotrzebnych plików i poprawę wydajności za jednym dotknięciem.</p><p style='margin:0px;line-height:1.4;letter-spacing:.6px;color:#4d4d4d;padding-top:10px;padding-bottom:10px;'><img style='border:0px;vertical-align:middle;margin-top:30px;margin-bottom:40px;width:944.984px;' src='https://allegro.stati.pl/AllegroIMG/PRODUCENCI/SAMSUNG/GalaxyA5/2016/alto/e.jpg' alt='e.jpg'></p></div></div><div class='row text-left fresh-content' style='margin-left:-15px;margin-right:-15px;font-family:'Open Sans', sans-serif;color:#333333;font-size:20px;letter-spacing:.6px;'><br><div class='col-md-10' style='min-height:1px;padding-left:15px;padding-right:15px;float:left;width:974.984px;'><h2 class='text-left' style='font-family:'Open Sans', 'Open Sans Condensed', sans-serif;font-weight:300;line-height:1.2;color:#4d4d4d;margin:0px;font-size:37px;padding-bottom:10px;letter-spacing:0px;'><span>S Health 4.0</span></h2><p style='margin:0px;line-height:1.4;letter-spacing:.6px;color:#4d4d4d;padding-top:10px;padding-bottom:10px;'>Telefon pomaga automatycznie kontrolować dzienną aktywność, a po wprowadzeniu danych, przeglądać wyniki treningów, codzienne spożycie kalorii i wagę. Postępy można śledzić na wykresach i w tabelach. W jednym miejscu zgromadzisz wszystkie swoje dokonania i statystyki.</p><p style='margin:0px;line-height:1.4;letter-spacing:.6px;color:#4d4d4d;padding-top:10px;padding-bottom:10px;'><img style='border:0px;vertical-align:middle;margin-top:30px;margin-bottom:40px;width:944.984px;' src='https://allegro.stati.pl/AllegroIMG/PRODUCENCI/SAMSUNG/GalaxyA5/2016/alto/g.jpg' alt='g.jpg'></p></div></div>",
    "additional_field": "",
    "previous_cost": 0,
    "cost": 1199,
    "quantity": 500,
    "available": 1,
    "bought_count": 0,
    "code": "SDSAJJ3189DSA",
    "type": "standard",
    "modified_date": "2017-03-24 20:00:00",
    "created_date": "2017-03-24 20:00:00",
    "recommended_product": 1,
    "promotional_product": 1,
    "check_out_product": 1,
    "deleted": 0,
    "attributes": [
      {
        "attribute_id": 1,
        "attribute_option_id": 2
      },
      {
        "attribute_id": 2,
        "attribute_option_id": 6
      },
      {
        "attribute_id": 3,
        "attribute_option_id": 7
      },
      {
        "attribute_id": 4,
        "attribute_option_id": 30
      },
      {
        "attribute_id": 5,
        "attribute_option_id": 31
      },
      {
        "attribute_id": 8,
        "attribute_option_id": 27
      }
    ],
    "images": [
      {
        "name": "8lp0hbzz149ej81i.jpg",
        "path": "/data/products/8lp0hbzz149ej81i.jpg",
        "thumb_path": "/data/products/8lp0hbzz149ej81i.jpg",
        "main": 1
      },
      {
        "name": "21yc0l5xkzo0l1o0.jpg",
        "path": "/data/products/21yc0l5xkzo0l1o0.jpg",
        "thumb_path": "/data/products/21yc0l5xkzo0l1o0.jpg",
        "main": 0
      },
      {
        "name": "p9nxg9s8sa888gr5.jpg",
        "path": "/data/products/p9nxg9s8sa888gr5.jpg",
        "thumb_path": "/data/products/p9nxg9s8sa888gr5.jpg",
        "main": 0
      }
    ],
    "reviews": [],
    "upSells": [
      {
        "product_id": 1,
        "up_product_id": 30,
        "cost": 159.99
      },
      {
        "product_id": 1,
        "up_product_id": 31,
        "cost": 239.99
      },
      {
        "product_id": 1,
        "up_product_id": 32,
        "cost": 299.99
      }
    ]
  },
  {
    "id": 6,
    "category_id": 2,
    "discount_id": null,
    "name": "Xiaomi Redmi 3S",
    "brand": "Xiaomi",
    "processed_name": "xiaomi-redmi-3s",
    "description": "<div class='row text-left fresh-content' style='margin-left:-15px;margin-right:-15px;font-family:'Open Sans', sans-serif;'><div class='col-md-10' style='min-height:1px;padding-left:15px;padding-right:15px;float:left;width:949.984px;'><h2 class='text-left' style='font-family:'Open Sans', 'Open Sans Condensed', sans-serif;font-weight:300;line-height:1.2;color:#4d4d4d;margin:0px;font-size:37px;padding-bottom:10px;letter-spacing:0px;'>Xiaomi Redmi 3S 32GB Dark Grey</h2><p style='margin:0px;line-height:1.4;letter-spacing:.6px;color:#4d4d4d;padding-top:10px;padding-bottom:10px;'>Ten smartfon posiada wszystko, czego potrzebujesz. Xiaomi Redmi 3S 32GB Dark Grey wyposażono w ośmiordzeniowy procesor Qualcomm Snapdragon 430 Octacore i 3GB pamięci RAM. Dysponuje również mocną baterią 4100 mAh i 5-calowym ekranem HD. Jego aparat 13 Mpix robi też wspaniałe zdjęcia, dopasowując ostrość i kolory do panujących warunków.</p><p style='margin:0px;line-height:1.4;letter-spacing:.6px;color:#4d4d4d;padding-top:10px;padding-bottom:10px;'>Oprócz tego, aluminiowa konstrukcja smartfona prezentuje się bajecznie. Jest opływowa, pewnie leży w dłoni i mierzy zaledwie 8,5 mm grubości. No i ta cena, która sprawia, że Xiaomi Redmi 3S 32GB jest absolutnie wyjątkowy.</p><p style='margin:0px;line-height:1.4;letter-spacing:.6px;color:#4d4d4d;padding-top:10px;padding-bottom:10px;'><img style='border:0px;vertical-align:middle;margin-top:30px;margin-bottom:40px;width:919.984px;' src='https://allegro.stati.pl/AllegroIMG/PRODUCENCI/XIAOMI/Redmi%203S/alto/b.jpg' alt='Xiaomi Redmi 3S'></p></div></div><div class='row text-left fresh-content' style='margin-left:-15px;margin-right:-15px;font-family:'Open Sans', sans-serif;'><br><div class='col-md-10' style='min-height:1px;padding-left:15px;padding-right:15px;float:left;width:949.984px;'><h2 class='text-left' style='font-family:'Open Sans', 'Open Sans Condensed', sans-serif;font-weight:300;line-height:1.2;color:#4d4d4d;margin:0px;font-size:37px;padding-bottom:10px;letter-spacing:0px;'>8-rdzeniowy procesor</h2><p style='margin:0px;line-height:1.4;letter-spacing:.6px;color:#4d4d4d;padding-top:10px;padding-bottom:10px;'>Ogromna moc, która nie wymaga dużo energii. Tak w skrócie prezentuje się procesor Snapdragon 430, będący sercem Xiaomi Redmi 3S 32GB. 64-bitowa jednostka składa się z ośmiu rdzeni, zoptymalizowanych pod kątem wielozadaniowej pracy, wiec duża liczba zadań nie jest mu straszna. Cztery rdzenie powstały z myślą o intensywnej pracy z grami 3D, czy filmami HD. Cztery kolejne obsługują mniej wymagające zadania, oszczędzając baterię.</p><p style='margin:0px;line-height:1.4;letter-spacing:.6px;color:#4d4d4d;padding-top:10px;padding-bottom:10px;'><img style='border:0px;vertical-align:middle;margin-top:30px;margin-bottom:40px;width:919.984px;' src='https://allegro.stati.pl/AllegroIMG/PRODUCENCI/XIAOMI/Redmi%203S/alto/k.jpg' alt='8-rdzeniowy procesor w Xiaomi Redmi 3S'></p></div></div><div class='row text-left fresh-content' style='margin-left:-15px;margin-right:-15px;font-family:'Open Sans', sans-serif;'><br><div class='col-md-10' style='min-height:1px;padding-left:15px;padding-right:15px;float:left;width:949.984px;'><h2 class='text-left' style='font-family:'Open Sans', 'Open Sans Condensed', sans-serif;font-weight:300;line-height:1.2;color:#4d4d4d;margin:0px;font-size:37px;padding-bottom:10px;letter-spacing:0px;'>Obrazy jak żywe</h2><p style='margin:0px;line-height:1.4;letter-spacing:.6px;color:#4d4d4d;padding-top:10px;padding-bottom:10px;'>Wyświetlacz Xiaomi Redmi 3S 32GB Dark Grey potrafi zaskoczyć. Na tym 5-calowym ekranie obejrzysz obrazy w jakości HD, które emanują żywymi kolorami. Nawet jeśli oglądasz je pod dużym kątem, bo taki efekt gwarantuje technologia IPS. Ciekawostką jest tryb czytania, zapobiegający zmęczeniu oczu. To bardzo ważne, jeśli wieczorami wertujesz blogi i portale informacyjne w poszukiwaniu ciekawostek. Dla jeszcze wyższego komfortu nie zapomnij ustawić temperatury barw, korzystając z jednego z trzech trybów.</p><p style='margin:0px;line-height:1.4;letter-spacing:.6px;color:#4d4d4d;padding-top:10px;padding-bottom:10px;'><img style='border:0px;vertical-align:middle;margin-top:30px;margin-bottom:40px;width:919.984px;' src='https://allegro.stati.pl/AllegroIMG/PRODUCENCI/XIAOMI/Redmi%203S/alto/n.jpg' alt='5-calowy wyświetlacz HD'></p></div></div><div class='row text-left fresh-content' style='margin-left:-15px;margin-right:-15px;font-family:'Open Sans', sans-serif;'><br><div class='col-md-10' style='min-height:1px;padding-left:15px;padding-right:15px;float:left;width:949.984px;'><h2 class='text-left' style='font-family:'Open Sans', 'Open Sans Condensed', sans-serif;font-weight:300;line-height:1.2;color:#4d4d4d;margin:0px;font-size:37px;padding-bottom:10px;letter-spacing:0px;'>Perfekcyjne zdjęcia z Xiaomi Redmi 3S 32GB</h2><p style='margin:0px;line-height:1.4;letter-spacing:.6px;color:#4d4d4d;padding-top:10px;padding-bottom:10px;'>Najpiękniejsze chwile trwają krótko. Aby je uwiecznić potrzebujesz aparatu, który błyskawicznie wykryje twarze, ustawi ostrość, a także dopasuje barwy. To wszystko zapewni Ci kamera 13 Mpix nowego Xiaomi Redmi 3S 32GB. Z jej pomocą sfotografujesz zarówno rodzinę siedzącą przy stole, bawiące się dzieci i popisowe numery w skateparku. Idealne selfie wykona dla Ciebie przedni aparat 5 Mpix, oferujący upiększanie kadru z poziomu smartfona. Teraz możesz je załadować na Facebooku i zbierać lajki.</p><p style='margin:0px;line-height:1.4;letter-spacing:.6px;color:#4d4d4d;padding-top:10px;padding-bottom:10px;'><img style='border:0px;vertical-align:middle;margin-top:30px;margin-bottom:40px;width:919.984px;' src='https://allegro.stati.pl//AllegroIMG/PRODUCENCI/XIAOMI/Redmi%203S/alto/g.jpg' alt='5-calowy wyświetlacz HD'></p></div></div><div class='row text-left fresh-content' style='margin-left:-15px;margin-right:-15px;font-family:'Open Sans', sans-serif;'><br><div class='col-md-10' style='min-height:1px;padding-left:15px;padding-right:15px;float:left;width:949.984px;'><h2 class='text-left' style='font-family:'Open Sans', 'Open Sans Condensed', sans-serif;font-weight:300;line-height:1.2;color:#4d4d4d;margin:0px;font-size:37px;padding-bottom:10px;letter-spacing:0px;'>Czytnik linii papilarnych</h2><p style='margin:0px;line-height:1.4;letter-spacing:.6px;color:#4d4d4d;padding-top:10px;padding-bottom:10px;'>W pamięci smartfona przechowujesz nie tylko kontakty, ale i zdjęcia, bankowość mobilną, czy pocztę e-mail. Są to prywatne dane i nie zawsze chcesz się nimi dzielić z innymi. Szczególnie wtedy, gdy pozwalasz komuś skorzystać ze smartfona. Xiaomi Redmi 3S Dark Grey zabezpieczy dostęp do najcenniejszych danych niezawodnym hasłem – Twoim odciskiem palca. Tobie wystarczy delikatny dotyk, by odblokować smartfon i przejść do zabezpieczonych plików, folderów oraz aplikacji. W tej cenie nie kupisz równie bezpiecznego urządzenia.</p><p style='margin:0px;line-height:1.4;letter-spacing:.6px;color:#4d4d4d;padding-top:10px;padding-bottom:10px;'><img style='border:0px;vertical-align:middle;margin-top:30px;margin-bottom:40px;width:919.984px;' src='https://allegro.stati.pl/AllegroIMG/PRODUCENCI/XIAOMI/Redmi%203S/alto/m.jpg' alt='Czytnik linii papilarnych'></p></div></div><div class='row text-left fresh-content' style='margin-left:-15px;margin-right:-15px;font-family:'Open Sans', sans-serif;'><br><div class='col-md-10' style='min-height:1px;padding-left:15px;padding-right:15px;float:left;width:949.984px;'><h2 class='text-left' style='font-family:'Open Sans', 'Open Sans Condensed', sans-serif;font-weight:300;line-height:1.2;color:#4d4d4d;margin:0px;font-size:37px;padding-bottom:10px;letter-spacing:0px;'>MIUI 7</h2><p style='margin:0px;line-height:1.4;letter-spacing:.6px;color:#4d4d4d;padding-top:10px;padding-bottom:10px;'>Twój smartfon – Twoje zasady. Z MIUI 7 spersonalizujesz urządzenie dokładnie tak, jak chcesz. Ustawisz motyw, tapetę, ikony i wiele innych elementów, korzystając z tysięcy dostępnych wariantów. Co więcej, zyskasz wygodny podgląd powiadomień, a także łatwy dostęp do ustawień systemowych. A jeśli znudzi Ci się obecny wygląd, równie szybko i łatwo stworzysz nowy.</p><p style='margin:0px;line-height:1.4;letter-spacing:.6px;color:#4d4d4d;padding-top:10px;padding-bottom:10px;'><img style='border:0px;vertical-align:middle;margin-top:30px;margin-bottom:40px;width:919.984px;' src='https://allegro.stati.pl/AllegroIMG/PRODUCENCI/XIAOMI/Redmi%203S/alto/o.jpg' alt='MIUI 7'></p></div></div><div class='row text-left fresh-content' style='margin-left:-15px;margin-right:-15px;font-family:'Open Sans', sans-serif;'><div class='col-md-10' style='min-height:1px;padding-left:15px;padding-right:15px;float:left;width:949.984px;'><h2 class='text-left' style='font-family:'Open Sans', 'Open Sans Condensed', sans-serif;font-weight:300;line-height:1.2;color:#4d4d4d;margin:0px;font-size:37px;padding-bottom:10px;letter-spacing:0px;'>Bateria 4100 mAh</h2><p style='margin:0px;line-height:1.4;letter-spacing:.6px;color:#4d4d4d;padding-top:10px;padding-bottom:10px;'>Pojemny akumulator nie musi być duży, czego najlepszym przykładem jest bateria Xiaomi Redmi 3S 32GB. Przełomowe technologie pozwoliły zwiększyć dwukrotnie pojemność, przy zachowaniu tych samych gabarytów. Zoptymalizowano też zużycie mocy, czego efektem jest dłuższa praca smartfona. O ile dłuższa? Wytrzyma nawet dwa dni na jednym ładowaniu. Z kolei uzupełnianie energii zajmuje niewiele czasu.</p><p style='margin:0px;line-height:1.4;letter-spacing:.6px;color:#4d4d4d;padding-top:10px;padding-bottom:10px;'><img style='border:0px;vertical-align:middle;margin-top:30px;margin-bottom:40px;width:919.984px;' src='https://allegro.stati.pl/AllegroIMG/PRODUCENCI/XIAOMI/Redmi%203S/alto/h.jpg' alt='Bateria 4100 mAh'></p></div></div><div class='row text-left fresh-content' style='margin-left:-15px;margin-right:-15px;font-family:'Open Sans', sans-serif;'><br><div class='col-md-10' style='min-height:1px;padding-left:15px;padding-right:15px;float:left;width:949.984px;'><h2 class='text-left' style='font-family:'Open Sans', 'Open Sans Condensed', sans-serif;font-weight:300;line-height:1.2;color:#4d4d4d;margin:0px;font-size:37px;padding-bottom:10px;letter-spacing:0px;'>Hybrydowe gniazdo SIM</h2><p style='margin:0px;line-height:1.4;letter-spacing:.6px;color:#4d4d4d;padding-top:10px;padding-bottom:10px;'>Aby zachować smukłą sylwetkę smartfona, a jednocześnie umożliwić rozbudowanie pamięci, wykorzystano hybrydowy slot SIM. Dzięki temu w jednym gnieździe, w zależności od potrzeb, umieścisz dwie karty SIM, albo kartę SIM i kartę microSD. Co ważne, czytnik kart pamięci obsługuje nośniki o pojemności do 128GB. Czy już wiesz, czym ją zapełnisz?</p><p style='margin:0px;line-height:1.4;letter-spacing:.6px;color:#4d4d4d;padding-top:10px;padding-bottom:10px;'><img style='border:0px;vertical-align:middle;margin-top:30px;margin-bottom:40px;width:919.984px;' src='https://allegro.stati.pl//AllegroIMG/PRODUCENCI/XIAOMI/Redmi%203S/alto/2.jpg' alt='Hybrydowe gniazdo SIM'></p><p>&nbsp;</p></div></div>",
    "additional_field": "",
    "previous_cost": 0,
    "cost": 959,
    "quantity": 500,
    "available": 1,
    "bought_count": 0,
    "code": "XIAO321NDSALDSA",
    "type": "standard",
    "modified_date": "2017-03-24 20:00:00",
    "created_date": "2017-03-24 20:00:00",
    "recommended_product": 1,
    "promotional_product": 1,
    "check_out_product": 1,
    "deleted": 0,
    "attributes": [
      {
        "attribute_id": 1,
        "attribute_option_id": 2
      },
      {
        "attribute_id": 2,
        "attribute_option_id": 6
      },
      {
        "attribute_id": 3,
        "attribute_option_id": 7
      },
      {
        "attribute_id": 4,
        "attribute_option_id": 30
      },
      {
        "attribute_id": 5,
        "attribute_option_id": 31
      },
      {
        "attribute_id": 8,
        "attribute_option_id": 26
      }
    ],
    "images": [
      {
        "name": "21eu7om2tq91rzos.png",
        "path": "/data/products/21eu7om2tq91rzos.png",
        "thumb_path": "/data/products/21eu7om2tq91rzos.png",
        "main": 1
      },
      {
        "name": "86u7om2tq91rzos.jpg",
        "path": "/data/products/86u7om2tq91rzos.jpg",
        "thumb_path": "/data/products/86u7om2tq91rzos.jpg",
        "main": 0
      },
      {
        "name": "cj5pfsis77ul4btd.jpg",
        "path": "/data/products/cj5pfsis77ul4btd.jpg",
        "thumb_path": "/data/products/cj5pfsis77ul4btd.jpg",
        "main": 0
      }
    ],
    "reviews": [],
    "upSells": [
      {
        "product_id": 1,
        "up_product_id": 30,
        "cost": 159.99
      },
      {
        "product_id": 1,
        "up_product_id": 31,
        "cost": 239.99
      },
      {
        "product_id": 1,
        "up_product_id": 32,
        "cost": 299.99
      }
    ]
  }
]